<?xml version="1.0" encoding="UTF-8"?>
<!DOCTYPE svg  PUBLIC '-//W3C//DTD SVG 1.1//EN'  'http://www.w3.org/Graphics/SVG/1.1/DTD/svg11.dtd'>
<svg clip-rule="evenodd" fill-rule="evenodd" stroke-linecap="round" stroke-linejoin="round" stroke-miterlimit="1.5" version="1.1" viewBox="0 0 795 654" xml:space="preserve" xmlns="http://www.w3.org/2000/svg">
    <path d="m398.27 346.39c-21.339-6.199-41.507-52.891-35.172-74.7 6.336-21.81 53.548-22.897 74.887-16.699 21.338 6.199 35.52 32.4 29.184 54.21-6.335 21.809-47.561 43.387-68.899 37.189z" fill="none" stroke="#fff" stroke-width="16.67px"/>
    <path d="m330.69 421.82c-69.069 5.937-234.42 179.34-307.93 50.252-92.72-162.81 294.09-149.84 236.98-213.57-58.854-65.661-210.08-38.897-100.05-163.19 80.132-90.523 185.4 113.4 239.4 69.131 40.952-33.576 88.443-209.31 189.7-140.13 111.46 76.141-97.718 167.79-58.931 206.18 25.836 25.575 254.53-52.898 256.08 58.911 1.914 137.86-235.31 12.8-281.56 92.166-67.807 116.37 111.05 166.99-31.224 252.69-115.35 69.488-81.187-217.72-142.45-212.45z" fill="none" stroke="#fff" stroke-width="16.67px"/>
</svg>
