<?xml version="1.0" encoding="UTF-8"?>
<!DOCTYPE svg  PUBLIC '-//W3C//DTD SVG 1.1//EN'  'http://www.w3.org/Graphics/SVG/1.1/DTD/svg11.dtd'>
<svg clip-rule="evenodd" fill-rule="evenodd" stroke-linecap="round" stroke-linejoin="round" stroke-miterlimit="1.5" version="1.1" viewBox="0 0 559 525" xml:space="preserve" xmlns="http://www.w3.org/2000/svg">
    <path d="m264.65 322.07c-18.408-5.347-22.972-38.834-17.506-57.648 5.465-18.815 44.493-31.324 62.901-25.977s20.767 36.595 15.301 55.409c-5.465 18.815-42.288 33.563-60.696 28.216z" fill="none" stroke="#fff" stroke-width="14.58px"/>
    <path d="m266.58 376.31c-59.546 4.995-79.066 113.32-138.74 81.223-108.92-58.587 101-102.85 51.664-157.59-50.84-56.407-191.15-44.175-170.07-150.19 16.505-83.021 140.28 56.492 186.77 18.597 35.263-28.743-20.471-166.82 85.148-160.87 75.788 4.266 36.975 175.8 76.468 201.31 43.578 28.148 162.29-108.61 189.79-5.362 29.16 109.49-140.89 57.387-162.02 129.04-11.826 40.117 84.74 118.03 8.83 171.46-94.689 66.64-75.022-132.04-127.84-127.61z" fill="none" stroke="#fff" stroke-width="14.58px"/>
</svg>
