<?xml version="1.0" encoding="UTF-8"?>
<!DOCTYPE svg  PUBLIC '-//W3C//DTD SVG 1.1//EN'  'http://www.w3.org/Graphics/SVG/1.1/DTD/svg11.dtd'>
<svg clip-rule="evenodd" fill-rule="evenodd" stroke-linecap="round" stroke-linejoin="round" stroke-miterlimit="1.5" version="1.1" viewBox="0 0 590 566" xml:space="preserve" xmlns="http://www.w3.org/2000/svg">
    <g transform="translate(-141.93 -295.05)">
        <g transform="matrix(-.8488 -.24656 .24656 -.8488 1030 2191)">
            <g transform="translate(17.719 -5.0257)">
                <path d="m1152.5 1515.6c25.14 0 52.65 26.5 52.65 52.19s-38.46 41.31-63.6 41.31-42.24-20.38-42.24-46.08c0-25.69 28.05-47.42 53.19-47.42z" fill="none" stroke="#fff" stroke-width="18.86px"/>
            </g>
            <path d="m1115.9 1446.2c73.17-28.25 39.21-260.95 173.98-228.9 157.85 37.53-76.98 224.14 5.19 275.35 84.66 52.76 184.25-53.47 196.49 88.62 9.58 111.28-175.96-5.93-220.65 59.2-33.9 49.4 124.84 202.79-13.31 215.52-114.06 10.5-96.9-164.8-151.16-194.27-36.14-19.63-187.18 132.32-251.5 23.38-75.894-128.54 170.46-85.79 150.4-127.02-24.11-49.57-288.46-72.69-160.94-210.7 103.39-111.9 206.6 123.87 271.5 98.82z" fill="none" stroke="#fff" stroke-width="18.86px"/>
        </g>
    </g>
</svg>
